Eclat/target/tb.vcd
$date
  Sun May 12 17:17:22 2024
$end
$version
  GHDL v0
$end
$timescale
  1 fs
$end
$scope module standard $end
$upscope $end
$scope module std_logic_1164 $end
$upscope $end
$scope module numeric_std $end
$upscope $end
$scope module runtime $end
$upscope $end
$scope module textio $end
$upscope $end
$scope module tb_main $end
$var reg 1 ! tb_run $end
$var reg 1 " tb_argument[0:0] $end
$var reg 1 # tb_result[0:0] $end
$var reg 1 $ tb_rdy[0:0] $end
$var reg 1 % tb_clk $end
$var reg 1 & rst $end
$scope module u1 $end
$var reg 1 ' clk $end
$var reg 1 ( reset $end
$var reg 1 ) run $end
$var reg 1 * rdy[0:0] $end
$var reg 1 + argument[0:0] $end
$var reg 1 , result[0:0] $end
$comment \state\ is not handled $end
$comment state_var1463 is not handled $end
$comment state_var1462 is not handled $end
$comment state_var1461 is not handled $end
$comment state_var1460 is not handled $end
$comment arr962 is not handled $end
$var reg 68 - \$arr962_value\[0:67] $end
$var integer 32 . \$arr962_ptr\ $end
$var integer 32 / \$arr962_ptr_write\ $end
$var reg 68 0 \$arr962_write\[0:67] $end
$var reg 1 1 \$arr962_write_request\ $end
$comment arr963 is not handled $end
$var reg 68 2 \$arr963_value\[0:67] $end
$var integer 32 3 \$arr963_ptr\ $end
$var integer 32 4 \$arr963_ptr_write\ $end
$var reg 68 5 \$arr963_write\[0:67] $end
$var reg 1 6 \$arr963_write_request\ $end
$comment arr964 is not handled $end
$var reg 68 7 \$arr964_value\[0:67] $end
$var integer 32 8 \$arr964_ptr\ $end
$var integer 32 9 \$arr964_ptr_write\ $end
$var reg 68 : \$arr964_write\[0:67] $end
$var reg 1 ; \$arr964_write_request\ $end
$comment arr965 is not handled $end
$var reg 72 < \$arr965_value\[0:71] $end
$var integer 32 = \$arr965_ptr\ $end
$var integer 32 > \$arr965_ptr_write\ $end
$var reg 72 ? \$arr965_write\[0:71] $end
$var reg 1 @ \$arr965_write_request\ $end
$comment arr966 is not handled $end
$var reg 128 A \$arr966_value\[0:127] $end
$var integer 32 B \$arr966_ptr\ $end
$var integer 32 C \$arr966_ptr_write\ $end
$var reg 128 D \$arr966_write\[0:127] $end
$var reg 1 E \$arr966_write_request\ $end
$upscope $end
$upscope $end
$enddefinitions $end
#0
0!
bU "
bU #
bU $
1%
1&
1'
1(
0)
bU *
bU +
bU ,
bUUUUUUUUUUUUUUUUUUUUUUUUUUUUUUUUUUUUUUUUUUUUUUUUUUUUUUUUUUUUUUUUUUUU -
b0 .
b0 /
bUUUUUUUUUUUUUUUUUUUUUUUUUUUUUUUUUUUUUUUUUUUUUUUUUUUUUUUUUUUUUUUUUUUU 0
01
bUUUUUUUUUUUUUUUUUUUUUUUUUUUUUUUUUUUUUUUUUUUUUUUUUUUUUUUUUUUUUUUUUUUU 2
b0 3
b0 4
bUUUUUUUUUUUUUUUUUUUUUUUUUUUUUUUUUUUUUUUUUUUUUUUUUUUUUUUUUUUUUUUUUUUU 5
06
bUUUUUUUUUUUUUUUUUUUUUUUUUUUUUUUUUUUUUUUUUUUUUUUUUUUUUUUUUUUUUUUUUUUU 7
b0 8
b0 9
bUUUUUUUUUUUUUUUUUUUUUUUUUUUUUUUUUUUUUUUUUUUUUUUUUUUUUUUUUUUUUUUUUUUU :
0;
bUUUUUUUUUUUUUUUUUUUUUUUUUUUUUUUUUUUUUUUUUUUUUUUUUUUUUUUUUUUUUUUUUUUUUUUU <
b0 =
b0 >
bUUUUUUUUUUUUUUUUUUUUUUUUUUUUUUUUUUUUUUUUUUUUUUUUUUUUUUUUUUUUUUUUUUUUUUUU ?
0@
bUUUUUUUUUUUUUUUUUUUUUUUUUUUUUUUUUUUUUUUUUUUUUUUUUUUUUUUUUUUUUUUUUUUUUUUUUUUUUUUUUUUUUUUUUUUUUUUUUUUUUUUUUUUUUUUUUUUUUUUUUUUUUUUU A
b0 B
b0 C
bUUUUUUUUUUUUUUUUUUUUUUUUUUUUUUUUUUUUUUUUUUUUUUUUUUUUUUUUUUUUUUUUUUUUUUUUUUUUUUUUUUUUUUUUUUUUUUUUUUUUUUUUUUUUUUUUUUUUUUUUUUUUUUUU D
0E
#2000000
0&
0(
#5000000
0%
0'
#10000000
1!
b1 "
b1 #
b1 $
1%
1'
1)
b1 *
b1 +
b1 ,
b00000000000000000000000000000000000000000000000000000000000000000000 -
b00000000000000000000000000000000000000000000000000000000000000000000 2
b00000000000000000000000000000000000000000000000000000000000000000000 7
b000000000000000000000000000000000000000000000000000000000000000000000000 <
b000010000000000000000000000000000000000000000000000000000000000000000000 ?
1@
b00000000000000000000000000000000000000000000000000000000000000000000000000000000000000000000000000000000000000000000000000000000 A
#15000000
0%
0'
#20000000
1%
1'
0@
#25000000
0%
0'
#30000000
1%
1'
b000010000000000000000000000000000000000000000000000000000000000000000000 <
b1 >
b010100010000000000000000000000000000101000000000000000000000000000000000 ?
1@
#35000000
0%
0'
#40000000
1%
1'
0@
#45000000
0%
0'
#50000000
1%
1'
b10 >
b000100000000000000000000000000000000000000000000000000000000000000000000 ?
1@
#55000000
0%
0'
#60000000
1%
1'
0@
#65000000
0%
0'
#70000000
1%
1'
b11 >
b000010000000000000000000000000000000000000000000000000000000000000000000 ?
1@
#75000000
0%
0'
#80000000
1%
1'
0@
#85000000
0%
0'
#90000000
1%
1'
b100 >
b010100010000000000000000000000000000000000000000000000000000000000000000 ?
1@
#95000000
0%
0'
#100000000
1%
1'
0@
#105000000
0%
0'
#110000000
1%
1'
b101 >
b000100000000000000000000000000000001000000000000000000000000000000000000 ?
1@
#115000000
0%
0'
#120000000
1%
1'
0@
#125000000
0%
0'
#130000000
1%
1'
b110 >
b001000000000000000000000000000000000000000000000000000000000000000000000 ?
1@
#135000000
0%
0'
#140000000
1%
1'
0@
#145000000
0%
0'
#150000000
1%
1'
b111 >
b001000000000000000000000000000000001000000000000000000000000000000000000 ?
1@
#155000000
0%
0'
#160000000
1%
1'
0@
#165000000
0%
0'
#170000000
1%
1'
b1000 >
b010100110000100000000000000000000000000000000000000000000000000000000000 ?
1@
#175000000
0%
0'
#180000000
1%
1'
0@
#185000000
0%
0'
#190000000
1%
1'
b1001 >
b100000000000000000000000000000000010000000000000000000000000000000000000 ?
1@
#195000000
0%
0'
#200000000
1%
1'
0@
#205000000
0%
0'
#210000000
1%
1'
b1010 >
b000100000000000000000000000000000001000000000000000000000000000000000000 ?
1@
#215000000
0%
0'
#220000000
1%
1'
0@
#225000000
0%
0'
#230000000
1%
1'
b1011 >
b001000000000000000000000000000000000000000000000000000000000000000000000 ?
1@
#235000000
0%
0'
#240000000
1%
1'
0@
#245000000
0%
0'
#250000000
1%
1'
b1100 >
b010100010000000000000000000000000000000000000000000000000000000000000000 ?
1@
#255000000
0%
0'
#260000000
1%
1'
0@
#265000000
0%
0'
#270000000
1%
1'
b1101 >
b010100110101100000000000000000000000000000000000000000000000000000000000 ?
1@
#275000000
0%
0'
#280000000
1%
1'
0@
#285000000
0%
0'
#290000000
1%
1'
b1110 >
b100000000000000000000000000000000010000000000000000000000000000000000000 ?
1@
#295000000
0%
0'
#300000000
1%
1'
0@
#305000000
0%
0'
#310000000
1%
1'
b1111 >
b101100000000000000000000000000010110000000000000000000000000000000000000 ?
1@
#315000000
0%
0'
#320000000
1%
1'
0@
#325000000
0%
0'
#330000000
1%
1'
b10000 >
b001000000000000000000000000000000000000000000000000000000000000000000000 ?
1@
#335000000
0%
0'
#340000000
1%
1'
0@
#345000000
0%
0'
#350000000
1%
1'
b10001 >
b010100010000000000000000000000000000000100000000000000000000000000000000 ?
1@
#355000000
0%
0'
#360000000
1%
1'
0@
#365000000
0%
0'
#370000000
1%
1'
b10010 >
b010100110001100000000000000000000000000000000000000000000000000000000000 ?
1@
#375000000
0%
0'
#380000000
1%
1'
0@
#385000000
0%
0'
#390000000
1%
1'
b10011 >
b100000000000000000000000000000000010000000000000000000000000000000000000 ?
1@
#395000000
0%
0'
#400000000
1%
1'
0@
#405000000
0%
0'
#410000000
1%
1'
b10100 >
b000100000000000000000000000000000000000000000000000000000000000000000000 ?
1@
#415000000
0%
0'
#420000000
1%
1'
0@
#425000000
0%
0'
#430000000
1%
1'
b10101 >
b101000000000000000000000000000000110000000000000000000000000000000000000 ?
1@
#435000000
0%
0'
#440000000
1%
1'
0@
#445000000
0%
0'
#450000000
1%
1'
b10110 >
b001000000000000000000000000000000001000000000000000000000000000000000000 ?
1@
#455000000
0%
0'
#460000000
1%
1'
0@
#465000000
0%
0'
#470000000
1%
1'
b10111 >
b011110000000000000000000000000000000000000000000000000000000000000000000 ?
1@
#475000000
0%
0'
#480000000
1%
1'
0@
#485000000
0%
0'
#490000000
1%
1'
#495000000
0%
0'
#500000000
1%
1'
#505000000
0%
0'
#510000000
1%
1'
#515000000
0%
0'
#520000000
1%
1'
b1 =
#525000000
0%
0'
#530000000
1%
1'
b010100010000000000000000000000000000101000000000000000000000000000000000 <
#535000000
0%
0'
#540000000
1%
1'
b00010000000000000000000000000000101000000000000000000000000000000000 5
16
#545000000
0%
0'
#550000000
1%
1'
06
#555000000
0%
0'
#560000000
1%
1'
b00010000000000000000000000000000101000000000000000000000000000000000 2
#565000000
0%
0'
#570000000
1%
1'
b10 =
#575000000
0%
0'
#580000000
1%
1'
b000100000000000000000000000000000000000000000000000000000000000000000000 <
#585000000
0%
0'
#590000000
1%
1'
#595000000
0%
0'
#600000000
1%
1'
#605000000
0%
0'
#610000000
1%
1'
b00010000000000000000000000000000101000000000000000000000000000000000 :
1;
#615000000
0%
0'
#620000000
1%
1'
0;
#625000000
0%
0'
#630000000
1%
1'
b00010000000000000000000000000000101000000000000000000000000000000000 7
#635000000
0%
0'
#640000000
1%
1'
b11 =
#645000000
0%
0'
#650000000
1%
1'
b000010000000000000000000000000000000000000000000000000000000000000000000 <
#655000000
0%
0'
#660000000
1%
1'
#665000000
0%
0'
#670000000
1%
1'
b100 =
#675000000
0%
0'
#680000000
1%
1'
b010100010000000000000000000000000000000000000000000000000000000000000000 <
#685000000
0%
0'
#690000000
1%
1'
b00010000000000000000000000000000000000000000000000000000000000000000 5
16
#695000000
0%
0'
#700000000
1%
1'
06
#705000000
0%
0'
#710000000
1%
1'
b00010000000000000000000000000000000000000000000000000000000000000000 2
#715000000
0%
0'
#720000000
1%
1'
b101 =
#725000000
0%
0'
#730000000
1%
1'
b000100000000000000000000000000000001000000000000000000000000000000000000 <
#735000000
0%
0'
#740000000
1%
1'
#745000000
0%
0'
#750000000
1%
1'
#755000000
0%
0'
#760000000
1%
1'
b1 9
b00010000000000000000000000000000000000000000000000000000000000000000 :
1;
#765000000
0%
0'
#770000000
1%
1'
0;
#775000000
0%
0'
#780000000
1%
1'
#785000000
0%
0'
#790000000
1%
1'
b110 =
#795000000
0%
0'
#800000000
1%
1'
b001000000000000000000000000000000000000000000000000000000000000000000000 <
#805000000
0%
0'
#810000000
1%
1'
#815000000
0%
0'
#820000000
1%
1'
#825000000
0%
0'
#830000000
1%
1'
b00010000000000000000000000000000101000000000000000000000000000000000 5
16
#835000000
0%
0'
#840000000
1%
1'
06
#845000000
0%
0'
#850000000
1%
1'
b00010000000000000000000000000000101000000000000000000000000000000000 2
#855000000
0%
0'
#860000000
1%
1'
b111 =
#865000000
0%
0'
#870000000
1%
1'
b001000000000000000000000000000000001000000000000000000000000000000000000 <
#875000000
0%
0'
#880000000
1%
1'
b1 8
#885000000
0%
0'
#890000000
1%
1'
b00010000000000000000000000000000000000000000000000000000000000000000 7
#895000000
0%
0'
#900000000
1%
1'
b1 4
b00010000000000000000000000000000000000000000000000000000000000000000 5
16
#905000000
0%
0'
#910000000
1%
1'
06
#915000000
0%
0'
#920000000
1%
1'
#925000000
0%
0'
#930000000
1%
1'
b1000 =
#935000000
0%
0'
#940000000
1%
1'
b010100110000100000000000000000000000000000000000000000000000000000000000 <
#945000000
0%
0'
#950000000
1%
1'
b10 4
b00110000100000000000000000000000000000000000000000000000000000000000 5
16
#955000000
0%
0'
#960000000
1%
1'
06
#965000000
0%
0'
#970000000
1%
1'
#975000000
0%
0'
#980000000
1%
1'
b1001 =
#985000000
0%
0'
#990000000
1%
1'
b100000000000000000000000000000000010000000000000000000000000000000000000 <
#995000000
0%
0'
#1000000000
1%
1'
b10 3
#1005000000
0%
0'
#1010000000
1%
1'
b00110000100000000000000000000000000000000000000000000000000000000000 2
#1015000000
0%
0'
#1020000000
1%
1'
#1025000000
0%
0'
#1030000000
1%
1'
b0 3
#1035000000
0%
0'
#1040000000
1%
1'
b00010000000000000000000000000000101000000000000000000000000000000000 2
#1045000000
0%
0'
#1050000000
1%
1'
#1055000000
0%
0'
#1060000000
1%
1'
b1 3
#1065000000
0%
0'
#1070000000
1%
1'
b00010000000000000000000000000000000000000000000000000000000000000000 2
#1075000000
0%
0'
#1080000000
1%
1'
#1085000000
0%
0'
#1090000000
1%
1'
b0 4
b00010000000000000000000000000000101000000000000000000000000000000000 5
16
#1095000000
0%
0'
#1100000000
1%
1'
06
#1105000000
0%
0'
#1110000000
1%
1'
#1115000000
0%
0'
#1120000000
1%
1'
b1010 =
#1125000000
0%
0'
#1130000000
1%
1'
b000100000000000000000000000000000001000000000000000000000000000000000000 <
#1135000000
0%
0'
#1140000000
1%
1'
b0 3
#1145000000
0%
0'
#1150000000
1%
1'
b00010000000000000000000000000000101000000000000000000000000000000000 2
#1155000000
0%
0'
#1160000000
1%
1'
b00010000000000000000000000000000101000000000000000000000000000000000 :
1;
#1165000000
0%
0'
#1170000000
1%
1'
0;
#1175000000
0%
0'
#1180000000
1%
1'
b00010000000000000000000000000000101000000000000000000000000000000000 7
#1185000000
0%
0'
#1190000000
1%
1'
b1011 =
#1195000000
0%
0'
#1200000000
1%
1'
b001000000000000000000000000000000000000000000000000000000000000000000000 <
#1205000000
0%
0'
#1210000000
1%
1'
b0 8
#1215000000
0%
0'
#1220000000
1%
1'
#1225000000
0%
0'
#1230000000
1%
1'
16
#1235000000
0%
0'
#1240000000
1%
1'
06
#1245000000
0%
0'
#1250000000
1%
1'
#1255000000
0%
0'
#1260000000
1%
1'
b1100 =
#1265000000
0%
0'
#1270000000
1%
1'
b010100010000000000000000000000000000000000000000000000000000000000000000 <
#1275000000
0%
0'
#1280000000
1%
1'
b1 4
b00010000000000000000000000000000000000000000000000000000000000000000 5
16
#1285000000
0%
0'
#1290000000
1%
1'
06
#1295000000
0%
0'
#1300000000
1%
1'
#1305000000
0%
0'
#1310000000
1%
1'
b1101 =
#1315000000
0%
0'
#1320000000
1%
1'
b010100110101100000000000000000000000000000000000000000000000000000000000 <
#1325000000
0%
0'
#1330000000
1%
1'
b10 4
b00110101100000000000000000000000000000000000000000000000000000000000 5
16
#1335000000
0%
0'
#1340000000
1%
1'
06
#1345000000
0%
0'
#1350000000
1%
1'
#1355000000
0%
0'
#1360000000
1%
1'
b1110 =
#1365000000
0%
0'
#1370000000
1%
1'
b100000000000000000000000000000000010000000000000000000000000000000000000 <
#1375000000
0%
0'
#1380000000
1%
1'
b10 3
#1385000000
0%
0'
#1390000000
1%
1'
b00110101100000000000000000000000000000000000000000000000000000000000 2
#1395000000
0%
0'
#1400000000
1%
1'
b1 3
#1405000000
0%
0'
#1410000000
1%
1'
b00010000000000000000000000000000000000000000000000000000000000000000 2
#1415000000
0%
0'
#1420000000
1%
1'
b0 3
#1425000000
0%
0'
#1430000000
1%
1'
b00010000000000000000000000000000101000000000000000000000000000000000 2
#1435000000
0%
0'
#1440000000
1%
1'
b0 4
b00000000000000000000000000000000000000000000000000000000000000000000 5
16
#1445000000
0%
0'
#1450000000
1%
1'
06
#1455000000
0%
0'
#1460000000
1%
1'
b00000000000000000000000000000000000000000000000000000000000000000000 2
#1465000000
0%
0'
#1470000000
1%
1'
b1111 =
#1475000000
0%
0'
#1480000000
1%
1'
b101100000000000000000000000000010110000000000000000000000000000000000000 <
#1485000000
0%
0'
#1490000000
1%
1'
#1495000000
0%
0'
#1500000000
1%
1'
#1505000000
0%
0'
#1510000000
1%
1'
#1515000000
0%
0'
#1520000000
1%
1'
b10000 =
#1525000000
0%
0'
#1530000000
1%
1'
b001000000000000000000000000000000000000000000000000000000000000000000000 <
#1535000000
0%
0'
#1540000000
1%
1'
#1545000000
0%
0'
#1550000000
1%
1'
#1555000000
0%
0'
#1560000000
1%
1'
b00010000000000000000000000000000101000000000000000000000000000000000 5
16
#1565000000
0%
0'
#1570000000
1%
1'
06
#1575000000
0%
0'
#1580000000
1%
1'
b00010000000000000000000000000000101000000000000000000000000000000000 2
#1585000000
0%
0'
#1590000000
1%
1'
b10001 =
#1595000000
0%
0'
#1600000000
1%
1'
b010100010000000000000000000000000000000100000000000000000000000000000000 <
#1605000000
0%
0'
#1610000000
1%
1'
b1 4
b00010000000000000000000000000000000100000000000000000000000000000000 5
16
#1615000000
0%
0'
#1620000000
1%
1'
06
#1625000000
0%
0'
#1630000000
1%
1'
#1635000000
0%
0'
#1640000000
1%
1'
b10010 =
#1645000000
0%
0'
#1650000000
1%
1'
b010100110001100000000000000000000000000000000000000000000000000000000000 <
#1655000000
0%
0'
#1660000000
1%
1'
b10 4
b00110001100000000000000000000000000000000000000000000000000000000000 5
16
#1665000000
0%
0'
#1670000000
1%
1'
06
#1675000000
0%
0'
#1680000000
1%
1'
#1685000000
0%
0'
#1690000000
1%
1'
b10011 =
#1695000000
0%
0'
#1700000000
1%
1'
b100000000000000000000000000000000010000000000000000000000000000000000000 <
#1705000000
0%
0'
#1710000000
1%
1'
b10 3
#1715000000
0%
0'
#1720000000
1%
1'
b00110001100000000000000000000000000000000000000000000000000000000000 2
#1725000000
0%
0'
#1730000000
1%
1'
b0 3
#1735000000
0%
0'
#1740000000
1%
1'
b00010000000000000000000000000000101000000000000000000000000000000000 2
#1745000000
0%
0'
#1750000000
1%
1'
#1755000000
0%
0'
#1760000000
1%
1'
b1 3
#1765000000
0%
0'
#1770000000
1%
1'
b00010000000000000000000000000000000100000000000000000000000000000000 2
#1775000000
0%
0'
#1780000000
1%
1'
#1785000000
0%
0'
#1790000000
1%
1'
b0 4
b00010000000000000000000000000000100100000000000000000000000000000000 5
16
#1795000000
0%
0'
#1800000000
1%
1'
06
#1805000000
0%
0'
#1810000000
1%
1'
#1815000000
0%
0'
#1820000000
1%
1'
b10100 =
#1825000000
0%
0'
#1830000000
1%
1'
b000100000000000000000000000000000000000000000000000000000000000000000000 <
#1835000000
0%
0'
#1840000000
1%
1'
b0 3
#1845000000
0%
0'
#1850000000
1%
1'
b00010000000000000000000000000000100100000000000000000000000000000000 2
#1855000000
0%
0'
#1860000000
1%
1'
b0 9
b00010000000000000000000000000000100100000000000000000000000000000000 :
1;
#1865000000
0%
0'
#1870000000
1%
1'
0;
#1875000000
0%
0'
#1880000000
1%
1'
b00010000000000000000000000000000100100000000000000000000000000000000 7
#1885000000
0%
0'
#1890000000
1%
1'
b10101 =
#1895000000
0%
0'
#1900000000
1%
1'
b101000000000000000000000000000000110000000000000000000000000000000000000 <
#1905000000
0%
0'
#1910000000
1%
1'
#1915000000
0%
0'
#1920000000
1%
1'
b110 =
#1925000000
0%
0'
#1930000000
1%
1'
b001000000000000000000000000000000000000000000000000000000000000000000000 <
#1935000000
0%
0'
#1940000000
1%
1'
#1945000000
0%
0'
#1950000000
1%
1'
#1955000000
0%
0'
#1960000000
1%
1'
16
#1965000000
0%
0'
#1970000000
1%
1'
06
#1975000000
0%
0'
#1980000000
1%
1'
#1985000000
0%
0'
#1990000000
1%
1'
b111 =
#1995000000
0%
0'
#2000000000
1%
1'
b001000000000000000000000000000000001000000000000000000000000000000000000 <
#2005000000
0%
0'
#2010000000
1%
1'
b1 8
#2015000000
0%
0'
#2020000000
1%
1'
b00010000000000000000000000000000101000000000000000000000000000000000 7
#2025000000
0%
0'
#2030000000
1%
1'
b1 4
b00010000000000000000000000000000101000000000000000000000000000000000 5
16
#2035000000
0%
0'
#2040000000
1%
1'
06
#2045000000
0%
0'
#2050000000
1%
1'
#2055000000
0%
0'
#2060000000
1%
1'
b1000 =
#2065000000
0%
0'
#2070000000
1%
1'
b010100110000100000000000000000000000000000000000000000000000000000000000 <
#2075000000
0%
0'
#2080000000
1%
1'
b10 4
b00110000100000000000000000000000000000000000000000000000000000000000 5
16
#2085000000
0%
0'
#2090000000
1%
1'
06
#2095000000
0%
0'
#2100000000
1%
1'
#2105000000
0%
0'
#2110000000
1%
1'
b1001 =
#2115000000
0%
0'
#2120000000
1%
1'
b100000000000000000000000000000000010000000000000000000000000000000000000 <
#2125000000
0%
0'
#2130000000
1%
1'
b10 3
#2135000000
0%
0'
#2140000000
1%
1'
b00110000100000000000000000000000000000000000000000000000000000000000 2
#2145000000
0%
0'
#2150000000
1%
1'
#2155000000
0%
0'
#2160000000
1%
1'
b0 3
#2165000000
0%
0'
#2170000000
1%
1'
b00010000000000000000000000000000100100000000000000000000000000000000 2
#2175000000
0%
0'
#2180000000
1%
1'
#2185000000
0%
0'
#2190000000
1%
1'
b1 3
#2195000000
0%
0'
#2200000000
1%
1'
b00010000000000000000000000000000101000000000000000000000000000000000 2
#2205000000
0%
0'
#2210000000
1%
1'
#2215000000
0%
0'
#2220000000
1%
1'
b0 4
b00010000000000000000000000000001001100000000000000000000000000000000 5
16
#2225000000
0%
0'
#2230000000
1%
1'
06
#2235000000
0%
0'
#2240000000
1%
1'
#2245000000
0%
0'
#2250000000
1%
1'
b1010 =
#2255000000
0%
0'
#2260000000
1%
1'
b000100000000000000000000000000000001000000000000000000000000000000000000 <
#2265000000
0%
0'
#2270000000
1%
1'
b0 3
#2275000000
0%
0'
#2280000000
1%
1'
b00010000000000000000000000000001001100000000000000000000000000000000 2
#2285000000
0%
0'
#2290000000
1%
1'
b1 9
b00010000000000000000000000000001001100000000000000000000000000000000 :
1;
#2295000000
0%
0'
#2300000000
1%
1'
0;
#2305000000
0%
0'
#2310000000
1%
1'
b00010000000000000000000000000001001100000000000000000000000000000000 7
#2315000000
0%
0'
#2320000000
1%
1'
b1011 =
#2325000000
0%
0'
#2330000000
1%
1'
b001000000000000000000000000000000000000000000000000000000000000000000000 <
#2335000000
0%
0'
#2340000000
1%
1'
b0 8
#2345000000
0%
0'
#2350000000
1%
1'
b00010000000000000000000000000000100100000000000000000000000000000000 7
#2355000000
0%
0'
#2360000000
1%
1'
b00010000000000000000000000000000100100000000000000000000000000000000 5
16
#2365000000
0%
0'
#2370000000
1%
1'
06
#2375000000
0%
0'
#2380000000
1%
1'
b00010000000000000000000000000000100100000000000000000000000000000000 2
#2385000000
0%
0'
#2390000000
1%
1'
b1100 =
#2395000000
0%
0'
#2400000000
1%
1'
b010100010000000000000000000000000000000000000000000000000000000000000000 <
#2405000000
0%
0'
#2410000000
1%
1'
b1 4
b00010000000000000000000000000000000000000000000000000000000000000000 5
16
#2415000000
0%
0'
#2420000000
1%
1'
06
#2425000000
0%
0'
#2430000000
1%
1'
#2435000000
0%
0'
#2440000000
1%
1'
b1101 =
#2445000000
0%
0'
#2450000000
1%
1'
b010100110101100000000000000000000000000000000000000000000000000000000000 <
#2455000000
0%
0'
#2460000000
1%
1'
b10 4
b00110101100000000000000000000000000000000000000000000000000000000000 5
16
#2465000000
0%
0'
#2470000000
1%
1'
06
#2475000000
0%
0'
#2480000000
1%
1'
#2485000000
0%
0'
#2490000000
1%
1'
b1110 =
#2495000000
0%
0'
#2500000000
1%
1'
b100000000000000000000000000000000010000000000000000000000000000000000000 <
#2505000000
0%
0'
#2510000000
1%
1'
b10 3
#2515000000
0%
0'
#2520000000
1%
1'
b00110101100000000000000000000000000000000000000000000000000000000000 2
#2525000000
0%
0'
#2530000000
1%
1'
b1 3
#2535000000
0%
0'
#2540000000
1%
1'
b00010000000000000000000000000000000000000000000000000000000000000000 2
#2545000000
0%
0'
#2550000000
1%
1'
b0 3
#2555000000
0%
0'
#2560000000
1%
1'
b00010000000000000000000000000000100100000000000000000000000000000000 2
#2565000000
0%
0'
#2570000000
1%
1'
b0 4
b00000000000000000000000000000000000000000000000000000000000000000000 5
16
#2575000000
0%
0'
#2580000000
1%
1'
06
#2585000000
0%
0'
#2590000000
1%
1'
b00000000000000000000000000000000000000000000000000000000000000000000 2
#2595000000
0%
0'
#2600000000
1%
1'
b1111 =
#2605000000
0%
0'
#2610000000
1%
1'
b101100000000000000000000000000010110000000000000000000000000000000000000 <
#2615000000
0%
0'
#2620000000
1%
1'
#2625000000
0%
0'
#2630000000
1%
1'
#2635000000
0%
0'
#2640000000
1%
1'
#2645000000
0%
0'
#2650000000
1%
1'
b10000 =
#2655000000
0%
0'
#2660000000
1%
1'
b001000000000000000000000000000000000000000000000000000000000000000000000 <
#2665000000
0%
0'
#2670000000
1%
1'
#2675000000
0%
0'
#2680000000
1%
1'
#2685000000
0%
0'
#2690000000
1%
1'
b00010000000000000000000000000000100100000000000000000000000000000000 5
16
#2695000000
0%
0'
#2700000000
1%
1'
06
#2705000000
0%
0'
#2710000000
1%
1'
b00010000000000000000000000000000100100000000000000000000000000000000 2
#2715000000
0%
0'
#2720000000
1%
1'
b10001 =
#2725000000
0%
0'
#2730000000
1%
1'
b010100010000000000000000000000000000000100000000000000000000000000000000 <
#2735000000
0%
0'
#2740000000
1%
1'
b1 4
b00010000000000000000000000000000000100000000000000000000000000000000 5
16
#2745000000
0%
0'
#2750000000
1%
1'
06
#2755000000
0%
0'
#2760000000
1%
1'
#2765000000
0%
0'
#2770000000
1%
1'
b10010 =
#2775000000
0%
0'
#2780000000
1%
1'
b010100110001100000000000000000000000000000000000000000000000000000000000 <
#2785000000
0%
0'
#2790000000
1%
1'
b10 4
b00110001100000000000000000000000000000000000000000000000000000000000 5
16
#2795000000
0%
0'
#2800000000
1%
1'
06
#2805000000
0%
0'
#2810000000
1%
1'
#2815000000
0%
0'
#2820000000
1%
1'
b10011 =
#2825000000
0%
0'
#2830000000
1%
1'
b100000000000000000000000000000000010000000000000000000000000000000000000 <
#2835000000
0%
0'
#2840000000
1%
1'
b10 3
#2845000000
0%
0'
#2850000000
1%
1'
b00110001100000000000000000000000000000000000000000000000000000000000 2
#2855000000
0%
0'
#2860000000
1%
1'
b0 3
#2865000000
0%
0'
#2870000000
1%
1'
b00010000000000000000000000000000100100000000000000000000000000000000 2
#2875000000
0%
0'
#2880000000
1%
1'
#2885000000
0%
0'
#2890000000
1%
1'
b1 3
#2895000000
0%
0'
#2900000000
1%
1'
b00010000000000000000000000000000000100000000000000000000000000000000 2
#2905000000
0%
0'
#2910000000
1%
1'
#2915000000
0%
0'
#2920000000
1%
1'
b0 4
b00010000000000000000000000000000100000000000000000000000000000000000 5
16
#2925000000
0%
0'
#2930000000
1%
1'
06
#2935000000
0%
0'
#2940000000
1%
1'
#2945000000
0%
0'
#2950000000
1%
1'
b10100 =
#2955000000
0%
0'
#2960000000
1%
1'
b000100000000000000000000000000000000000000000000000000000000000000000000 <
#2965000000
0%
0'
#2970000000
1%
1'
b0 3
#2975000000
0%
0'
#2980000000
1%
1'
b00010000000000000000000000000000100000000000000000000000000000000000 2
#2985000000
0%
0'
#2990000000
1%
1'
b0 9
b00010000000000000000000000000000100000000000000000000000000000000000 :
1;
#2995000000
0%
0'
#3000000000
1%
1'
0;
#3005000000
0%
0'
#3010000000
1%
1'
b00010000000000000000000000000000100000000000000000000000000000000000 7
#3015000000
0%
0'
#3020000000
1%
1'
b10101 =
#3025000000
0%
0'
#3030000000
1%
1'
b101000000000000000000000000000000110000000000000000000000000000000000000 <
#3035000000
0%
0'
#3040000000
1%
1'
#3045000000
0%
0'
#3050000000
1%
1'
b110 =
#3055000000
0%
0'
#3060000000
1%
1'
b001000000000000000000000000000000000000000000000000000000000000000000000 <
#3065000000
0%
0'
#3070000000
1%
1'
#3075000000
0%
0'
#3080000000
1%
1'
#3085000000
0%
0'
#3090000000
1%
1'
16
#3095000000
0%
0'
#3100000000
1%
1'
06
#3105000000
0%
0'
#3110000000
1%
1'
#3115000000
0%
0'
#3120000000
1%
1'
b111 =
#3125000000
0%
0'
#3130000000
1%
1'
b001000000000000000000000000000000001000000000000000000000000000000000000 <
#3135000000
0%
0'
#3140000000
1%
1'
b1 8
#3145000000
0%
0'
#3150000000
1%
1'
b00010000000000000000000000000001001100000000000000000000000000000000 7
#3155000000
0%
0'
#3160000000
1%
1'
b1 4
b00010000000000000000000000000001001100000000000000000000000000000000 5
16
#3165000000
0%
0'
#3170000000
1%
1'
06
#3175000000
0%
0'
#3180000000
1%
1'
#3185000000
0%
0'
#3190000000
1%
1'
b1000 =
#3195000000
0%
0'
#3200000000
1%
1'
b010100110000100000000000000000000000000000000000000000000000000000000000 <
#3205000000
0%
0'
#3210000000
1%
1'
b10 4
b00110000100000000000000000000000000000000000000000000000000000000000 5
16
#3215000000
0%
0'
#3220000000
1%
1'
06
#3225000000
0%
0'
#3230000000
1%
1'
#3235000000
0%
0'
#3240000000
1%
1'
b1001 =
#3245000000
0%
0'
#3250000000
1%
1'
b100000000000000000000000000000000010000000000000000000000000000000000000 <
#3255000000
0%
0'
#3260000000
1%
1'
b10 3
#3265000000
0%
0'
#3270000000
1%
1'
b00110000100000000000000000000000000000000000000000000000000000000000 2
#3275000000
0%
0'
#3280000000
1%
1'
#3285000000
0%
0'
#3290000000
1%
1'
b0 3
#3295000000
0%
0'
#3300000000
1%
1'
b00010000000000000000000000000000100000000000000000000000000000000000 2
#3305000000
0%
0'
#3310000000
1%
1'
#3315000000
0%
0'
#3320000000
1%
1'
b1 3
#3325000000
0%
0'
#3330000000
1%
1'
b00010000000000000000000000000001001100000000000000000000000000000000 2
#3335000000
0%
0'
#3340000000
1%
1'
#3345000000
0%
0'
#3350000000
1%
1'
b0 4
b00010000000000000000000000000001101100000000000000000000000000000000 5
16
#3355000000
0%
0'
